{
    "mode": "run",
    "execute_function": {"__type__": "deepsolaris_declair.execute.execute"},
    "cleanup_function": {"__type__": "deepsolaris_declair.execute.cleanup"},
    "experiment_name": "sample_run",
    "params": {
        "device": {"__env__": ["device"]},
        "architecture": {
            "model": {
                "call": {"__type__": "deepsolaris_declair.search.models.resnet.create_model"},
                "params": {
                    "final_activation": {"__type__": "torch.nn.Softmax"},
                    "freeze_layers": 0,
                    "pretrained": true
                }
            },
            "criterion": {
                "call": {"__type__": "torch.nn.modules.loss.CrossEntropyLoss"}
            }
        },
        "optimizer":
        { "call": {"__type__": "torch.optim.adagrad.Adagrad"}, 
            "params": 
            {
                "lr": 0.0009494365283442601, 
                "lr_decay": 2.6524326707406026e-54, 
                "weight_decay": 4.045471163418708e-18}
        },
        "dataset": {
            "call": {"__type__": "deepsolaris_declair.data.get_split_loaders"},
            "params": {
                "batch_size": 120,
                "dataset_params": {
                    "device": {"__env__": ["device"]},
                    "name": "Heerlen_HR",
                    "data_dir": {"__env__": ["dataset", "dir"]},
                    "__train__": {
                        "transform": {"__call__": "deepsolaris_declair.search.transforms.rotation_transform",
                                      "__with_kwargs__": {"max_degrees": 30}
                        }
                    }
                }

            }
        },
        "extra_dataset": {
            "call": {"__type__": "deepsolaris_declair.data.get_split_loaders"},
            "params": {
                "batch_size": 120,
                "dataset_params": {
                    "device": {"__env__": ["device"]},
                    "name": "NRW_2017_HR",
                    "data_dir": {"__env__": ["dataset", "dir"]}
                }

            }
        },
        "max_epochs": 30
    }
}
