{
    "mode": "search",
    "type": "hyperopt",
    "execute_function": {"__type__": "deepsolaris_declair.execute.execute"},
    "cleanup_function": {"__type__": "deepsolaris_declair.execute.cleanup"},
    "experiment_name": "search_vgg",
    "search_params": {
        "fmin_kwargs": {
            "max_evals": 500,
            "algo": {"__type__": "hyperopt.tpe.suggest"}
        },
        "optimize": {
            "type": "max",
            "target": "val_accuracy"
        }
    },
    "params": {
        "device": {"__env__": ["device"]},
        "architecture": {
            "model": {
                "call": {"__type__": "deepsolaris_declair.search.models.vgg.create_model"},
                "params": {
                    "classifier_layer_sizes": [
                        {"__tuple__": [
                            {"__hp__": "quniform", "args": [500, 4000, 50]},
                            {"__hp__": "quniform", "args": [500, 4000, 50]}]},
                        {"__tuple__": [
                            {"__hp__": "quniform", "args": [500, 4000, 50]}
                        ]}
                    ],
                    "hidden_activation": {"__type__": "torch.nn.ReLU"},
                    "final_activation": {"__type__": "torch.nn.Softmax"},
                    "batch_norm": true,
                    "freeze_layers": {"__hp__": "quniform", "args": [0, 12, 2]},
                    "dropouts": [null, {"__tuple__": [0.5]}],
                    "pretrained": true
                }
            },
            "criterion": {
                "call": {"__type__": "torch.nn.modules.loss.CrossEntropyLoss"}
            }
        },
        "optimizer": [
        {
            "call": {"__type__": "torch.optim.RMSprop"},
            "params": {
                "lr": {"__hp__": "loguniform", "args": [-10, -2]},
                "momentum": {"__hp__": "loguniform", "args": [-200, -2]}
            }
        },
        {
            "call": {"__type__": "torch.optim.Adagrad"},
            "params": {
                "lr": {"__hp__": "loguniform", "args": [-10, -2]},
                "lr_decay": {"__hp__": "loguniform", "args": [-200, -2]},
                "weight_decay": {"__hp__": "loguniform", "args": [-200, -2]}
            }
        },
        {
            "call": {"__type__": "torch.optim.Adam"},
            "params": {
                "lr": {"__hp__": "loguniform", "args": [-10, -2]},
                "weight_decay": {"__hp__": "loguniform", "args": [-200, -2]}
            }
        }
        ],
        "dataset": {
            "call": {"__type__": "deepsolaris_declair.data.get_split_loaders"},
            "params": {
                "batch_size": 80,
                "dataset_params": {
                    "device": {"__env__": ["device"]},
                    "name": "Heerlen_HR",
                    "data_dir": {"__env__": ["dataset", "dir"]},
                    "__train__": {
                        "transform": {
                            "__call__": "declair.frameworks.ignite.transforms.conditional_compose",
                            "__with_args__": {"__tuple__": [
                                [null, {"__call__": "deepsolaris_declair.search.transforms.rotation_transform",
                                      "__with_kwargs__": {"max_degrees": {"__hp__": "uniform", "args": [0, 180]}}}],
                                [null, {"__call__": "deepsolaris_declair.search.transforms.color_jitter"}]
                            ]}
                        }
                    }
                }

            }
        },
        "extra_dataset": {
            "call": {"__type__": "deepsolaris_declair.data.get_split_loaders"},
            "params": {
                "batch_size": 80,
                "dataset_params": {
                    "device": {"__env__": ["device"]},
                    "name": "NRW_2017_HR",
                    "data_dir": {"__env__": ["dataset", "dir"]}
                }

            }
        },
        "max_epochs": 40
    }
}
